…
Tibbles are a special kind of dataframe that work well with tidyverse packages ("in the tidyverse" in tidyversese).

``` r
# convert ratings to a "tibble"
ratings <- as.tibble(ratings)
```

A nice feature of tibbles is that if you display them in the console (by typing `ratings`, for example) only first few rows and columns are shown. Unfortunately this doesn't carry over to jupyter notebook, so I need to explicitly say `print(ratings)` or all the rows are shown.

``` r
print(ratings)
```

    ## # A tibble: 100,004 x 4
    ##    userId movieId rating  timestamp
    ##     <int>   <int>  <dbl>      <int>
    ##  1      1      31    2.5 1260759144
    ##  2      1    1029    3.0 1260759179
    ##  3      1    1061    3.0 1260759182
    ##  4      1    1129    2.0 1260759185
    ##  5      1    1172    4.0 1260759205
    ##  6      1    1263    2.0 1260759151
    ##  7      1    1287    2.0 1260759187
    ##  8      1    1293    2.0 1260759148
    ##  9      1    1339    3.5 1260759125
    ## 10      1    1343    2.0 1260759131
    ## # ... with 99,994 more rows
…
We'll look at database joins in more detail, but for now, this just adds movie title to the `ratings` data by pulling that information from `movies`.

``` r
ratings <- left_join(ratings, movies)
```

    ## Joining, by = "movieId"

checking it out

``` r
ratings
```

    ## # A tibble: 100,004 x 6
    ##    userId movieId rating  timestamp
    ##     <int>   <int>  <dbl>      <int>
    ##  1      1      31    2.5 1260759144
    ##  2      1    1029    3.0 1260759179
    ##  3      1    1061    3.0 1260759182
    ##  4      1    1129    2.0 1260759185
    ##  5      1    1172    4.0 1260759205
    ##  6      1    1263    2.0 1260759151
    ##  7      1    1287    2.0 1260759187
    ##  8      1    1293    2.0 1260759148
    ##  9      1    1339    3.5 1260759125
    ## 10      1    1343    2.0 1260759131
    ## # ... with 99,994 more rows, and 2 more variables: title <fctr>,
    ## #   genres <fctr>
…
Other uses of `grouped_by()`: grouped filters and grouped mutates
-----------------------------------------------------------------

While you'll probably use `group_by()` most often with `summarise()`, it can also be useful when used in conjunction with `filter()` and `mutate()`. Grouped filters perform the filtering within each group. Below we use it to extract each user's favourite movie (or movies, if there's a tie).

``` r
# example of a grouped filter
ratings %>% group_by(userId) %>% filter(rank(desc(rating)) < 2)
```

    ## # A tibble: 102 x 6
    ## # Groups:   userId [69]
    ##    userId movieId rating  timestamp
    ##     <int>   <int>  <dbl>      <int>
    ##  1     13       1      5 1331380058
    ##  2     13     356      5 1331380018
    ##  3     14    3175      5  976244313
    ##  4     18      25      5  856006886
    ##  5     18      32      5  856006885
    ##  6     24       6      5  849321588
    ##  7     24     296      5  849282414
    ##  8     35    3072      5 1174450056
    ##  9     50     589      5  847412628
    ## 10     72   55820      5 1464722872
    ## # ... with 92 more rows, and 2 more variables: title <fctr>, genres <fctr>

Here we use a grouped mutate to standardise each user's ratings so that they have a mean of zero (for each user, which guarantees the overall mean rating is also zero).

``` r
# example of a grouped mutate
ratings %>% 
group_by(userId) %>%
mutate(centered_rating = rating - mean(rating)) %>% 
select(-movieId,-timestamp,-genres)
```

    ## # A tibble: 100,004 x 4
    ## # Groups:   userId [671]
    ##    userId rating                                          title
    ##     <int>  <dbl>                                         <fctr>
    ##  1      1    2.5                         Dangerous Minds (1995)
    ##  2      1    3.0                                   Dumbo (1941)
    ##  3      1    3.0                                Sleepers (1996)
    ##  4      1    2.0                    Escape from New York (1981)
    ##  5      1    4.0 Cinema Paradiso (Nuovo cinema Paradiso) (1989)
    ##  6      1    2.0                        Deer Hunter, The (1978)
    ##  7      1    2.0                                 Ben-Hur (1959)
    ##  8      1    2.0                                  Gandhi (1982)
    ##  9      1    3.5         Dracula (Bram Stoker's Dracula) (1992)
    ## 10      1    2.0                               Cape Fear (1991)
    ## # ... with 99,994 more rows, and 1 more variables: centered_rating <dbl>
…
We now want to reshape the data frame into a 15x20 matrix i.e.from "long" format to "wide" format. We can do this using the `spread()` verb.

``` r
ratings_red %>% spread(key = movieId, value = rating)
```

    ## # A tibble: 106 x 24
    ##    userId  timestamp                           title
    ##  *  <int>      <int>                          <fctr>
    ##  1    149 1436919794                Inception (2010)
    ##  2    149 1436921723      Breakfast Club, The (1985)
    ##  3    149 1436923259       Fifth Element, The (1997)
    ##  4    149 1436923311             American Pie (1999)
    ##  5    149 1436923357              Stand by Me (1986)
    ##  6    177  907379242               Armageddon (1998)
    ##  7    177  907380001       Fifth Element, The (1997)
    ##  8    177  907380055   Star Trek: Generations (1994)
    ##  9    177  907380710 Clear and Present Danger (1994)
    ## 10    177  907380710              Taxi Driver (1976)
    ## # ... with 96 more rows, and 21 more variables: genres <fctr>,
    ## #   `111` <dbl>, `208` <dbl>, `292` <dbl>, `329` <dbl>, `349` <dbl>,
    ## #   `912` <dbl>, `919` <dbl>, `1208` <dbl>, `1259` <dbl>, `1527` <dbl>,
    ## #   `1917` <dbl>, `1961` <dbl>, `1968` <dbl>, `2683` <dbl>, `2706` <dbl>,
    ## #   `3996` <dbl>, `4995` <dbl>, `5445` <dbl>, `6874` <dbl>, `79132` <dbl>
…
``` r
# reload the MovieLens data
load("data/movielens-small.RData")
ratings <- as.tibble(ratings)
movies <- as.tibble(movies)
```

Note that the same *movieId* can appear multiple times in the *ratings* data frame:

``` r
print(ratings %>% arrange(movieId)) # note duplicate movieIds
```

    ## # A tibble: 100,004 x 4
    ##    userId movieId rating  timestamp
    ##     <int>   <int>  <dbl>      <int>
    ##  1      7       1    3.0  851866703
    ##  2      9       1    4.0  938629179
    ##  3     13       1    5.0 1331380058
    ##  4     15       1    2.0  997938310
    ##  5     19       1    3.0  855190091
    ##  6     20       1    3.5 1238729767
    ##  7     23       1    3.0 1148729853
    ##  8     26       1    5.0 1360087980
    ##  9     30       1    4.0  944943070
    ## 10     37       1    4.0  981308121
    ## # ... with 99,994 more rows

But each *movieId* only appears once in the *movies* data frame:

``` r
print(movies %>% arrange(movieId)) # note unique movieIds
```

    ## # A tibble: 9,125 x 3
    ##    movieId                              title
    ##      <int>                             <fctr>
    ##  1       1                   Toy Story (1995)
    ##  2       2                     Jumanji (1995)
    ##  3       3            Grumpier Old Men (1995)
    ##  4       4           Waiting to Exhale (1995)
    ##  5       5 Father of the Bride Part II (1995)
    ##  6       6                        Heat (1995)
    ##  7       7                     Sabrina (1995)
    ##  8       8                Tom and Huck (1995)
    ##  9       9                Sudden Death (1995)
    ## 10      10                   GoldenEye (1995)
    ## # ... with 9,115 more rows, and 1 more variables: genres <fctr>

In this case a left join by the *movieId* key copies across the movie title information (as well as any other information in the *movies* data frame):

``` r
print(left_join(ratings, movies, by = "movieId") %>% select(title,everything()))
```

    ## # A tibble: 100,004 x 6
    ##                                             title userId movieId rating
    ##                                            <fctr>  <int>   <int>  <dbl>
    ##  1                         Dangerous Minds (1995)      1      31    2.5
    ##  2                                   Dumbo (1941)      1    1029    3.0
    ##  3                                Sleepers (1996)      1    1061    3.0
    ##  4                    Escape from New York (1981)      1    1129    2.0
    ##  5 Cinema Paradiso (Nuovo cinema Paradiso) (1989)      1    1172    4.0
    ##  6                        Deer Hunter, The (1978)      1    1263    2.0
    ##  7                                 Ben-Hur (1959)      1    1287    2.0
    ##  8                                  Gandhi (1982)      1    1293    2.0
    ##  9         Dracula (Bram Stoker's Dracula) (1992)      1    1339    3.5
    ## 10                               Cape Fear (1991)      1    1343    2.0
    ## # ... with 99,994 more rows, and 2 more variables: timestamp <int>,
    ## #   genres <fctr>
…
